mc16_13TeV.364519.Sherpa_222_NNPDF30NNLO_nunugamma_pty_140_E_CMS.deriv.DAOD_EXOT6.e5928_s3126_r9364_r9315_p3654

mc16_13TeV.364547.Sherpa_222_NNPDF30NNLO_SinglePhoton_pty_1000_E_CMS.deriv.DAOD_EXOT6.e6068_s3126_r9364_r9315_p3654
mc16_13TeV.364546.Sherpa_222_NNPDF30NNLO_SinglePhoton_pty_500_1000.deriv.DAOD_EXOT6.e5938_s3126_r9364_r9315_p3654
mc16_13TeV.364545.Sherpa_222_NNPDF30NNLO_SinglePhoton_pty_280_500.deriv.DAOD_EXOT6.e5938_s3126_r9364_r9315_p3654
mc16_13TeV.364544.Sherpa_222_NNPDF30NNLO_SinglePhoton_pty_140_280.deriv.DAOD_EXOT6.e5938_s3126_r9364_r9315_p3654

mc16_13TeV.364148.Sherpa_221_NNPDF30NNLO_Znunu_MAXHTPTV140_280_CVetoBVeto.deriv.DAOD_EXOT6.e5308_s3126_r9364_r9315_p3652 
mc16_13TeV.364149.Sherpa_221_NNPDF30NNLO_Znunu_MAXHTPTV140_280_CFilterBVeto.deriv.DAOD_EXOT6.e5308_s3126_r9364_r9315_p3652
mc16_13TeV.364150.Sherpa_221_NNPDF30NNLO_Znunu_MAXHTPTV140_280_BFilter.deriv.DAOD_EXOT6.e5308_e5984_s3126_r9364_p3652
mc16_13TeV.364151.Sherpa_221_NNPDF30NNLO_Znunu_MAXHTPTV280_500_CVetoBVeto.deriv.DAOD_EXOT6.e5308_s3126_r9364_r9315_p3652
mc16_13TeV.364152.Sherpa_221_NNPDF30NNLO_Znunu_MAXHTPTV280_500_CFilterBVeto.deriv.DAOD_EXOT6.e5308_s3126_r9364_r9315_p3652
mc16_13TeV.364153.Sherpa_221_NNPDF30NNLO_Znunu_MAXHTPTV280_500_BFilter.deriv.DAOD_EXOT6.e5308_s3126_r9364_r9315_p3652
mc16_13TeV.364154.Sherpa_221_NNPDF30NNLO_Znunu_MAXHTPTV500_1000.deriv.DAOD_EXOT6.e5308_s3126_r9364_r9315_p3652

mc16_13TeV.364170.Sherpa_221_NNPDF30NNLO_Wenu_MAXHTPTV0_70_CVetoBVeto.deriv.DAOD_EXOT6.e5340_s3126_r9364_r9315_p3652 
mc16_13TeV.364171.Sherpa_221_NNPDF30NNLO_Wenu_MAXHTPTV0_70_CFilterBVeto.deriv.DAOD_EXOT6.e5340_s3126_r9364_r9315_p3652
mc16_13TeV.364172.Sherpa_221_NNPDF30NNLO_Wenu_MAXHTPTV0_70_BFilter.deriv.DAOD_EXOT6.e5340_s3126_r9364_r9315_p3652
mc16_13TeV.364173.Sherpa_221_NNPDF30NNLO_Wenu_MAXHTPTV70_140_CVetoBVeto.deriv.DAOD_EXOT6.e5340_s3126_r9364_r9315_p3652 
mc16_13TeV.364174.Sherpa_221_NNPDF30NNLO_Wenu_MAXHTPTV70_140_CFilterBVeto.deriv.DAOD_EXOT6.e5340_s3126_r9364_r9315_p3652
mc16_13TeV.364175.Sherpa_221_NNPDF30NNLO_Wenu_MAXHTPTV70_140_BFilter.deriv.DAOD_EXOT6.e5340_s3126_r9364_r9315_p3652 
mc16_13TeV.364176.Sherpa_221_NNPDF30NNLO_Wenu_MAXHTPTV140_280_CVetoBVeto.deriv.DAOD_EXOT6.e5340_s3126_r9364_r9315_p3652
mc16_13TeV.364177.Sherpa_221_NNPDF30NNLO_Wenu_MAXHTPTV140_280_CFilterBVeto.deriv.DAOD_EXOT6.e5340_s3126_r9364_r9315_p3652
mc16_13TeV.364178.Sherpa_221_NNPDF30NNLO_Wenu_MAXHTPTV140_280_BFilter.deriv.DAOD_EXOT6.e5340_s3126_r9364_r9315_p3652 
mc16_13TeV.364179.Sherpa_221_NNPDF30NNLO_Wenu_MAXHTPTV280_500_CVetoBVeto.deriv.DAOD_EXOT6.e5340_s3126_r9364_r9315_p3652
mc16_13TeV.364180.Sherpa_221_NNPDF30NNLO_Wenu_MAXHTPTV280_500_CFilterBVeto.deriv.DAOD_EXOT6.e5340_s3126_r9364_r9315_p3652
mc16_13TeV.364181.Sherpa_221_NNPDF30NNLO_Wenu_MAXHTPTV280_500_BFilter.deriv.DAOD_EXOT6.e5340_s3126_r9364_r9315_p3652
mc16_13TeV.364182.Sherpa_221_NNPDF30NNLO_Wenu_MAXHTPTV500_1000.deriv.DAOD_EXOT6.e5340_s3126_r9364_r9315_p3652
mc16_13TeV.364183.Sherpa_221_NNPDF30NNLO_Wenu_MAXHTPTV1000_E_CMS.deriv.DAOD_EXOT6.e5340_s3126_r9364_r9315_p3652

mc16_13TeV.364525.Sherpa_222_NNPDF30NNLO_enugamma_pty_140_E_CMS.deriv.DAOD_EXOT6.e5928_s3126_r9364_r9315_p3654
mc16_13TeV.364530.Sherpa_222_NNPDF30NNLO_munugamma_pty_140_E_CMS.deriv.DAOD_EXOT6.e5928_s3126_r9364_r9315_p3654
mc16_13TeV.364535.Sherpa_222_NNPDF30NNLO_taunugamma_pty_140_E_CMS.deriv.DAOD_EXOT6.e5928_s3126_r9364_r9315_p3654

mc16_13TeV.364504.Sherpa_222_NNPDF30NNLO_eegamma_pty_140_E_CMS.deriv.DAOD_EXOT6.e5928_e5984_s3126_r9364_r9315_p3654
mc16_13TeV.364509.Sherpa_222_NNPDF30NNLO_mumugamma_pty_140_E_CMS.deriv.DAOD_EXOT6.e5928_e5984_s3126_r9364_r9315_p3654
mc16_13TeV.364514.Sherpa_222_NNPDF30NNLO_tautaugamma_pty_140_E_CMS.deriv.DAOD_EXOT6.e5928_s3126_r9364_r9315_p3654

mc16_13TeV.364126.Sherpa_221_NNPDF30NNLO_Zee_MAXHTPTV500_1000.deriv.DAOD_EXOT6.e5299_s3126_r9364_r9315_p3652             
mc16_13TeV.364118.Sherpa_221_NNPDF30NNLO_Zee_MAXHTPTV70_140_CFilterBVeto.deriv.DAOD_EXOT6.e5299_s3126_r9364_r9315_p3652  
mc16_13TeV.364117.Sherpa_221_NNPDF30NNLO_Zee_MAXHTPTV70_140_CVetoBVeto.deriv.DAOD_EXOT6.e5299_s3126_r9364_r9315_p3652    
mc16_13TeV.364127.Sherpa_221_NNPDF30NNLO_Zee_MAXHTPTV1000_E_CMS.deriv.DAOD_EXOT6.e5299_s3126_r9364_r9315_p3652           
mc16_13TeV.364123.Sherpa_221_NNPDF30NNLO_Zee_MAXHTPTV280_500_CVetoBVeto.deriv.DAOD_EXOT6.e5299_s3126_r9364_r9315_p3652   
mc16_13TeV.364125.Sherpa_221_NNPDF30NNLO_Zee_MAXHTPTV280_500_BFilter.deriv.DAOD_EXOT6.e5299_s3126_r9364_r9315_p3652      
mc16_13TeV.364119.Sherpa_221_NNPDF30NNLO_Zee_MAXHTPTV70_140_BFilter.deriv.DAOD_EXOT6.e5299_s3126_r9364_r9315_p3652       
mc16_13TeV.364116.Sherpa_221_NNPDF30NNLO_Zee_MAXHTPTV0_70_BFilter.deriv.DAOD_EXOT6.e5299_s3126_r9364_r9315_p3652         
mc16_13TeV.364121.Sherpa_221_NNPDF30NNLO_Zee_MAXHTPTV140_280_CFilterBVeto.deriv.DAOD_EXOT6.e5299_s3126_r9364_r9315_p3652 
mc16_13TeV.364120.Sherpa_221_NNPDF30NNLO_Zee_MAXHTPTV140_280_CVetoBVeto.deriv.DAOD_EXOT6.e5299_s3126_r9364_r9315_p3652   
mc16_13TeV.364115.Sherpa_221_NNPDF30NNLO_Zee_MAXHTPTV0_70_CFilterBVeto.deriv.DAOD_EXOT6.e5299_s3126_r9364_r9315_p3652    
mc16_13TeV.364124.Sherpa_221_NNPDF30NNLO_Zee_MAXHTPTV280_500_CFilterBVeto.deriv.DAOD_EXOT6.e5299_s3126_r9364_r9315_p3652 
mc16_13TeV.364114.Sherpa_221_NNPDF30NNLO_Zee_MAXHTPTV0_70_CVetoBVeto.deriv.DAOD_EXOT6.e5299_s3126_r9364_r9315_p3652      
mc16_13TeV.364122.Sherpa_221_NNPDF30NNLO_Zee_MAXHTPTV140_280_BFilter.deriv.DAOD_EXOT6.e5299_s3126_r9364_r9315_p3652      

